%YAML 1.1
%TAG !u! tag:unity3d.com,2011:
--- !u!1001 &2690456978024220079
PrefabInstance:
  m_ObjectHideFlags: 0
  serializedVersion: 2
  m_Modification:
    serializedVersion: 3
    m_TransformParent: {fileID: 0}
    m_Modifications:
    - target: {fileID: 2183495420691104761, guid: 5a9291a1288fd3c439894933e37226a0, type: 3}
      propertyPath: m_LocalScale.x
      value: 0.8
      objectReference: {fileID: 0}
    - target: {fileID: 2183495420691104761, guid: 5a9291a1288fd3c439894933e37226a0, type: 3}
      propertyPath: m_LocalScale.z
      value: 0.8
      objectReference: {fileID: 0}
    - target: {fileID: 2183495420691104761, guid: 5a9291a1288fd3c439894933e37226a0, type: 3}
      propertyPath: m_LocalPosition.x
      value: 0
      objectReference: {fileID: 0}
    - target: {fileID: 2183495420691104761, guid: 5a9291a1288fd3c439894933e37226a0, type: 3}
      propertyPath: m_LocalPosition.y
      value: 0
      objectReference: {fileID: 0}
    - target: {fileID: 2183495420691104761, guid: 5a9291a1288fd3c439894933e37226a0, type: 3}
      propertyPath: m_LocalPosition.z
      value: 0
      objectReference: {fileID: 0}
    - target: {fileID: 2183495420691104761, guid: 5a9291a1288fd3c439894933e37226a0, type: 3}
      propertyPath: m_LocalRotation.w
      value: 1
      objectReference: {fileID: 0}
    - target: {fileID: 2183495420691104761, guid: 5a9291a1288fd3c439894933e37226a0, type: 3}
      propertyPath: m_LocalRotation.x
      value: 0
      objectReference: {fileID: 0}
    - target: {fileID: 2183495420691104761, guid: 5a9291a1288fd3c439894933e37226a0, type: 3}
      propertyPath: m_LocalRotation.y
      value: 0
      objectReference: {fileID: 0}
    - target: {fileID: 2183495420691104761, guid: 5a9291a1288fd3c439894933e37226a0, type: 3}
      propertyPath: m_LocalRotation.z
      value: 0
      objectReference: {fileID: 0}
    - target: {fileID: 2183495420691104761, guid: 5a9291a1288fd3c439894933e37226a0, type: 3}
      propertyPath: m_LocalEulerAnglesHint.x
      value: 0
      objectReference: {fileID: 0}
    - target: {fileID: 2183495420691104761, guid: 5a9291a1288fd3c439894933e37226a0, type: 3}
      propertyPath: m_LocalEulerAnglesHint.y
      value: 0
      objectReference: {fileID: 0}
    - target: {fileID: 2183495420691104761, guid: 5a9291a1288fd3c439894933e37226a0, type: 3}
      propertyPath: m_LocalEulerAnglesHint.z
      value: 0
      objectReference: {fileID: 0}
    - target: {fileID: 2196629059491632576, guid: 5a9291a1288fd3c439894933e37226a0, type: 3}
      propertyPath: m_Materials.Array.data[0]
      value: 
      objectReference: {fileID: 2100000, guid: f2310a65dc07a6444b524500708a8928, type: 2}
    - target: {fileID: 5352710598991523392, guid: 5a9291a1288fd3c439894933e37226a0, type: 3}
      propertyPath: m_Name
      value: Goal
      objectReference: {fileID: 0}
    m_RemovedComponents: []
    m_RemovedGameObjects: []
    m_AddedGameObjects: []
    m_AddedComponents: []
  m_SourcePrefab: {fileID: 100100000, guid: 5a9291a1288fd3c439894933e37226a0, type: 3}
